inode: 258382
Allocated
Group: 32
Generation Id: 3777042910
uid / gid: 0 / 0
mode: rrw-r--r--
Flags: Extents, 
size: 37681
num of links: 1

Inode Times:
Accessed:	2019-11-03 01:26:23.616723888 (UTC)
File Modified:	2019-10-08 17:02:12.000000000 (UTC)
Inode Modified:	2019-11-03 01:26:24.008720694 (UTC)
File Created:	2019-11-03 01:26:23.616723888 (UTC)

Direct Blocks:
57368 57369 57370 57371 57372 57373 57374 57375 
57376 57377 
